Constituency,Predicted Winning Serial Number,Predicted Winning Name of Candidate,Party
MAR - 1,7,RNI,RNI
MAR - 2,35,RNI,RNI
MAR - 3,63,RNI,RNI
MAR - 4,91,RNI,RNI
MAR - 6,119,RNI,RNI
MAR - 7,147,RNI,RNI
MAR - 8,175,RNI,RNI
MAR - 9,203,RNI,RNI
MAR - 10,231,RNI,RNI
MAR - 11,259,RNI,RNI
MAR - 12,287,RNI,RNI
MAR - 13,315,RNI,RNI
MAR - 14,343,RNI,RNI
MAR - 16,371,RNI,RNI
MAR - 17,399,RNI,RNI
MAR - 18,427,RNI,RNI
MAR - 19,455,RNI,RNI
MAR - 20,483,RNI,RNI
MAR - 21,511,RNI,RNI
MAR - 22,539,RNI,RNI
MAR - 23,567,RNI,RNI
MAR - 24,595,RNI,RNI
MAR - 25,623,RNI,RNI
MAR - 26,651,RNI,RNI
MAR - 27,679,RNI,RNI
MAR - 28,707,RNI,RNI
MAR - 29,735,RNI,RNI
MAR - 30,763,RNI,RNI
MAR - 31,791,RNI,RNI
MAR - 32,819,RNI,RNI
MAR - 33,847,RNI,RNI
MAR - 34,875,RNI,RNI
MAR - 35,903,RNI,RNI
MAR - 36,931,RNI,RNI
MAR - 37,959,RNI,RNI
MAR - 38,987,RNI,RNI
MAR - 39,1015,RNI,RNI
MAR - 40,1043,RNI,RNI
MAR - 41,1071,RNI,RNI
MAR - 42,1099,RNI,RNI
MAR - 43,1127,RNI,RNI
MAR - 44,1155,RNI,RNI
MAR - 45,1183,RNI,RNI
MAR - 46,1211,RNI,RNI
MAR - 47,1239,RNI,RNI
MAR - 48,1267,RNI,RNI
MAR - 49,1295,RNI,RNI
MAR - 50,1323,RNI,RNI
MAR - 51,1351,RNI,RNI
MAR - 52,1379,RNI,RNI
MAR - 54,1407,RNI,RNI
MAR - 55,1435,RNI,RNI
MAR - 56,1463,RNI,RNI
MAR - 57,1491,RNI,RNI
MAR - 58,1519,RNI,RNI
MAR - 59,1547,RNI,RNI
MAR - 60,1575,RNI,RNI
MAR - 61,1603,RNI,RNI
MAR - 62,1631,RNI,RNI
MAR - 63,1659,RNI,RNI
MAR - 64,1687,RNI,RNI
MAR - 65,1715,RNI,RNI
MAR - 66,1743,RNI,RNI
MAR - 67,1771,RNI,RNI
MAR - 68,1799,RNI,RNI
MAR - 69,1827,RNI,RNI
MAR - 70,1855,RNI,RNI
MAR - 72,1883,RNI,RNI
MAR - 73,1911,RNI,RNI
MAR - 74,1939,RNI,RNI
MAR - 75,1967,RNI,RNI
MAR - 76,1995,RNI,RNI
MAR - 77,2023,RNI,RNI
MAR - 78,2051,RNI,RNI
MAR - 79,2079,RNI,RNI
MAR - 80,2107,RNI,RNI
MAR - 81,2135,RNI,RNI
MAR - 82,2163,RNI,RNI
MAR - 83,2191,RNI,RNI
MAR - 84,2219,RNI,RNI
MAR - 85,2247,RNI,RNI
MAR - 86,2275,RNI,RNI
MAR - 87,2303,RNI,RNI
MAR - 88,2331,RNI,RNI
MAR - 89,2359,RNI,RNI
MAR - 90,2387,RNI,RNI
MAR - 91,2415,RNI,RNI
MAR - 92,2443,RNI,RNI
MAR - 93,2471,RNI,RNI
MAR - 94,2499,RNI,RNI
MAR - 95,2527,RNI,RNI
MAR - 96,2555,RNI,RNI
MAR - 97,2583,RNI,RNI
MAR - 98,2611,RNI,RNI
MAR - 99,2639,RNI,RNI
MAR - 100,2667,RNI,RNI
MAR - 101,2695,RNI,RNI
MAR - 102,2723,RNI,RNI
MAR - 103,2751,RNI,RNI
MAR - 104,2779,RNI,RNI
MAR - 105,2807,RNI,RNI
MAR - 107,2835,RNI,RNI
MAR - 108,2863,RNI,RNI
MAR - 109,2891,RNI,RNI
MAR - 110,2919,RNI,RNI
MAR - 111,2947,RNI,RNI
MAR - 112,2975,RNI,RNI
MAR - 113,3003,RNI,RNI
MAR - 115,3031,RNI,RNI
MAR - 116,3059,RNI,RNI
MAR - 117,3087,RNI,RNI
MAR - 118,3115,RNI,RNI
MAR - 119,3143,RNI,RNI
MAR - 121,3171,RNI,RNI
MAR - 122,3194,PJD,PJD
MAR - 123,3222,PJD,PJD
MAR - 124,3250,PJD,PJD
MAR - 125,3278,PJD,PJD
MAR - 126,3306,PJD,PJD
MAR - 127,3334,PJD,PJD
MAR - 128,3362,PJD,PJD
MAR - 129,3395,RNI,RNI
MAR - 130,3418,PJD,PJD
MAR - 131,3446,PJD,PJD
MAR - 132,3474,PJD,PJD
MAR - 133,3502,PJD,PJD
MAR - 134,3530,PJD,PJD
MAR - 135,3558,PJD,PJD
MAR - 136,3586,PJD,PJD
MAR - 137,3614,PJD,PJD
MAR - 138,3642,PJD,PJD
MAR - 139,3670,PJD,PJD
MAR - 140,3698,PJD,PJD
MAR - 141,3726,PJD,PJD
MAR - 142,3754,PJD,PJD
MAR - 143,3782,PJD,PJD
MAR - 144,3810,PJD,PJD
MAR - 145,3838,PJD,PJD
MAR - 146,3866,PJD,PJD
MAR - 147,3894,PJD,PJD
MAR - 148,3922,PJD,PJD
MAR - 149,3950,PJD,PJD
MAR - 150,3978,PJD,PJD
MAR - 151,4006,PJD,PJD
MAR - 152,4034,PJD,PJD
MAR - 153,4062,PJD,PJD
MAR - 154,4090,PJD,PJD
MAR - 155,4118,PJD,PJD
MAR - 156,4146,PJD,PJD
MAR - 157,4174,PJD,PJD
MAR - 158,4202,PJD,PJD
MAR - 159,4230,PJD,PJD
MAR - 160,4258,PJD,PJD
MAR - 161,4286,PJD,PJD
MAR - 162,4314,PJD,PJD
MAR - 163,4342,PJD,PJD
MAR - 164,4370,PJD,PJD
MAR - 165,4398,PJD,PJD
MAR - 166,4426,PJD,PJD
MAR - 167,4454,PJD,PJD
MAR - 168,4482,PJD,PJD
MAR - 169,4510,PJD,PJD
MAR - 170,4538,PJD,PJD
MAR - 171,4566,PJD,PJD
MAR - 172,4594,PJD,PJD
MAR - 173,4622,PJD,PJD
MAR - 174,4651,PAM,PAM
MAR - 175,4679,PAM,PAM
MAR - 176,4707,PAM,PAM
MAR - 177,4735,PAM,PAM
MAR - 178,4763,PAM,PAM
MAR - 179,4791,PAM,PAM
MAR - 180,4819,PAM,PAM
MAR - 181,4847,PAM,PAM
MAR - 182,4875,PAM,PAM
MAR - 183,4903,PAM,PAM
MAR - 184,4931,PAM,PAM
MAR - 185,4959,PAM,PAM
MAR - 186,4987,PAM,PAM
MAR - 187,5015,PAM,PAM
MAR - 188,5043,PAM,PAM
MAR - 189,5071,PAM,PAM
MAR - 190,5099,PAM,PAM
MAR - 191,5127,PAM,PAM
MAR - 192,5155,PAM,PAM
MAR - 193,5183,PAM,PAM
MAR - 194,5211,PAM,PAM
MAR - 195,5239,PAM,PAM
MAR - 196,5267,PAM,PAM
MAR - 197,5295,PAM,PAM
MAR - 198,5323,PAM,PAM
MAR - 199,5351,PAM,PAM
MAR - 200,5379,PAM,PAM
MAR - 201,5407,PAM,PAM
MAR - 202,5435,PAM,PAM
MAR - 203,5463,PAM,PAM
MAR - 207,5491,PAM,PAM
MAR - 208,5519,PAM,PAM
MAR - 209,5547,PAM,PAM
MAR - 210,5575,PAM,PAM
MAR - 211,5602,PJD,PJD
MAR - 212,5630,PJD,PJD
MAR - 213,5658,PJD,PJD
MAR - 214,5686,PJD,PJD
MAR - 215,5714,PJD,PJD
MAR - 216,5742,PJD,PJD
MAR - 217,5770,PJD,PJD
MAR - 218,5798,PJD,PJD
MAR - 219,5826,PJD,PJD
MAR - 220,5854,PJD,PJD
MAR - 221,5882,PJD,PJD
MAR - 222,5910,PJD,PJD
MAR - 223,5938,PJD,PJD
MAR - 224,5966,PJD,PJD
MAR - 225,5994,PJD,PJD
MAR - 226,6022,PJD,PJD
MAR - 227,6050,PJD,PJD
MAR - 228,6078,PJD,PJD
MAR - 229,6106,PJD,PJD
MAR - 230,6134,PJD,PJD
MAR - 231,6162,PJD,PJD
MAR - 232,6195,RNI,RNI
MAR - 233,6223,RNI,RNI
MAR - 234,6251,RNI,RNI
MAR - 235,6279,RNI,RNI
MAR - 236,6307,RNI,RNI
MAR - 237,6335,RNI,RNI
MAR - 238,6363,RNI,RNI
MAR - 239,6391,RNI,RNI
MAR - 240,6414,PJD,PJD
MAR - 241,6442,PJD,PJD
MAR - 242,6470,PJD,PJD
MAR - 243,6498,PJD,PJD
MAR - 244,6526,PJD,PJD
MAR - 245,6554,PJD,PJD
MAR - 246,6582,PJD,PJD
MAR - 247,6610,PJD,PJD
MAR - 248,6638,PJD,PJD
MAR - 249,6666,PJD,PJD
MAR - 250,6694,PJD,PJD
MAR - 251,6722,PJD,PJD
MAR - 252,6750,PJD,PJD
MAR - 253,6778,PJD,PJD
MAR - 254,6806,PJD,PJD
MAR - 255,6834,PJD,PJD
MAR - 256,6862,PJD,PJD
MAR - 257,6890,PJD,PJD
MAR - 258,6918,PJD,PJD
MAR - 259,6946,PJD,PJD
MAR - 260,6974,PJD,PJD
MAR - 261,7002,PJD,PJD
MAR - 262,7030,PJD,PJD
MAR - 263,7059,PAM,PAM
MAR - 264,7087,PAM,PAM
MAR - 265,7115,PAM,PAM
MAR - 266,7143,PAM,PAM
MAR - 267,7171,PAM,PAM
MAR - 268,7199,PAM,PAM
MAR - 269,7227,PAM,PAM
MAR - 270,7255,PAM,PAM
MAR - 271,7283,PAM,PAM
MAR - 272,7311,PAM,PAM
MAR - 273,7339,PAM,PAM
MAR - 274,7367,PAM,PAM
MAR - 275,7395,PAM,PAM
MAR - 276,7423,PAM,PAM
MAR - 277,7451,PAM,PAM
MAR - 278,7479,PAM,PAM
MAR - 279,7507,PAM,PAM
MAR - 280,7535,PAM,PAM
MAR - 281,7563,PAM,PAM
MAR - 283,7591,PAM,PAM
MAR - 284,7619,PAM,PAM
MAR - 285,7647,PAM,PAM
MAR - 286,7675,PAM,PAM
MAR - 287,7703,PAM,PAM
MAR - 288,7731,PAM,PAM
MAR - 289,7759,PAM,PAM
MAR - 290,7787,PAM,PAM
MAR - 291,7815,PAM,PAM
MAR - 292,7843,PAM,PAM
MAR - 293,7871,PAM,PAM
MAR - 294,7899,PAM,PAM
MAR - 295,7927,PAM,PAM
MAR - 296,7955,PAM,PAM
MAR - 297,7983,PAM,PAM
MAR - 298,8011,PAM,PAM
MAR - 299,8039,PAM,PAM
MAR - 300,8067,PAM,PAM
MAR - 301,8095,PAM,PAM
MAR - 302,8123,PAM,PAM
MAR - 303,8151,PAM,PAM
MAR - 304,8179,PAM,PAM
MAR - 305,8207,PAM,PAM
MAR - 306,8235,PAM,PAM
MAR - 307,8267,RNI,RNI
MAR - 308,8295,RNI,RNI
MAR - 309,8323,RNI,RNI
MAR - 310,8351,RNI,RNI
MAR - 311,8379,RNI,RNI
MAR - 312,8407,RNI,RNI
MAR - 313,8435,RNI,RNI
MAR - 314,8463,RNI,RNI
MAR - 315,8491,RNI,RNI
MAR - 316,8519,RNI,RNI
MAR - 317,8547,RNI,RNI
MAR - 318,8575,RNI,RNI
MAR - 319,8603,RNI,RNI
MAR - 320,8631,RNI,RNI
MAR - 321,8659,RNI,RNI
MAR - 322,8687,RNI,RNI
MAR - 323,8715,RNI,RNI
MAR - 324,8743,RNI,RNI
MAR - 325,8771,RNI,RNI
MAR - 326,8799,RNI,RNI
MAR - 327,8827,RNI,RNI
MAR - 328,8855,RNI,RNI
MAR - 329,8883,RNI,RNI
MAR - 330,8911,RNI,RNI
MAR - 331,8939,RNI,RNI
MAR - 332,8967,RNI,RNI
MAR - 333,8995,RNI,RNI
MAR - 334,9023,RNI,RNI
MAR - 335,9051,RNI,RNI
MAR - 336,9079,RNI,RNI
MAR - 337,9107,RNI,RNI
MAR - 338,9135,RNI,RNI
MAR - 339,9163,RNI,RNI
MAR - 340,9191,RNI,RNI
MAR - 341,9219,RNI,RNI
MAR - 342,9247,RNI,RNI
MAR - 343,9275,RNI,RNI
MAR - 344,9303,RNI,RNI
MAR - 345,9331,RNI,RNI
MAR - 346,9359,RNI,RNI
MAR - 347,9387,RNI,RNI
MAR - 348,9415,RNI,RNI
MAR - 349,9443,RNI,RNI
MAR - 350,9471,RNI,RNI
MAR - 352,9499,RNI,RNI
MAR - 353,9527,RNI,RNI
MAR - 354,9555,RNI,RNI
MAR - 355,9583,RNI,RNI
MAR - 357,9611,RNI,RNI
MAR - 358,9639,RNI,RNI
MAR - 359,9667,RNI,RNI
MAR - 361,9695,RNI,RNI
MAR - 362,9723,RNI,RNI
MAR - 363,9751,RNI,RNI
MAR - 365,9779,RNI,RNI
MAR - 366,9807,RNI,RNI
MAR - 367,9835,RNI,RNI
MAR - 368,9863,RNI,RNI
MAR - 370,9891,RNI,RNI
MAR - 372,9919,RNI,RNI
MAR - 373,9947,RNI,RNI
MAR - 374,9975,RNI,RNI
MAR - 376,10003,RNI,RNI
MAR - 377,10031,RNI,RNI
MAR - 378,10059,RNI,RNI
MAR - 379,10087,RNI,RNI
MAR - 380,10115,RNI,RNI
MAR - 381,10138,PJD,PJD
MAR - 382,10167,PAM,PAM
MAR - 383,10195,PAM,PAM
MAR - 384,10223,PAM,PAM
MAR - 385,10251,PAM,PAM
MAR - 386,10279,PAM,PAM
MAR - 387,10307,PAM,PAM
MAR - 388,10334,PJD,PJD
MAR - 389,10362,PJD,PJD
MAR - 390,10390,PJD,PJD
MAR - 391,10418,PJD,PJD
MAR - 392,10446,PJD,PJD
MAR - 393,10474,PJD,PJD
MAR - 394,10502,PJD,PJD
MAR - 395,10530,PJD,PJD
MAR - 396,10558,PJD,PJD
MAR - 397,10586,PJD,PJD
MAR - 398,10614,PJD,PJD
MAR - 399,10642,PJD,PJD
MAR - 400,10670,PJD,PJD
MAR - 401,10698,PJD,PJD
MAR - 402,10726,PJD,PJD
MAR - 403,10754,PJD,PJD
MAR - 404,10782,PJD,PJD
MAR - 405,10810,PJD,PJD
MAR - 406,10838,PJD,PJD
MAR - 407,10866,PJD,PJD
MAR - 408,10895,PAM,PAM
MAR - 409,10923,PAM,PAM
MAR - 410,10951,PAM,PAM
MAR - 411,10979,PAM,PAM
MAR - 412,11007,PAM,PAM
MAR - 413,11035,PAM,PAM
MAR - 414,11063,PAM,PAM
MAR - 415,11095,RNI,RNI
MAR - 416,11123,RNI,RNI
MAR - 417,11151,RNI,RNI
MAR - 418,11179,RNI,RNI
MAR - 419,11207,RNI,RNI
MAR - 420,11235,RNI,RNI
MAR - 421,11263,RNI,RNI
MAR - 422,11291,RNI,RNI
MAR - 423,11319,RNI,RNI
MAR - 424,11347,RNI,RNI
MAR - 425,11375,RNI,RNI
MAR - 426,11403,RNI,RNI
MAR - 427,11431,RNI,RNI
MAR - 428,11459,RNI,RNI
MAR - 429,11487,RNI,RNI
MAR - 430,11515,RNI,RNI
MAR - 431,11543,RNI,RNI
MAR - 432,11571,RNI,RNI
MAR - 433,11599,RNI,RNI
MAR - 434,11627,RNI,RNI
MAR - 435,11655,RNI,RNI
MAR - 436,11683,RNI,RNI
MAR - 437,11707,PAM,PAM
MAR - 438,11735,PAM,PAM
MAR - 439,11763,PAM,PAM
MAR - 440,11791,PAM,PAM
MAR - 441,11819,PAM,PAM
MAR - 442,11847,PAM,PAM
MAR - 443,11875,PAM,PAM
MAR - 444,11903,PAM,PAM
MAR - 445,11931,PAM,PAM
MAR - 446,11959,PAM,PAM
MAR - 447,11987,PAM,PAM
MAR - 448,12015,PAM,PAM
MAR - 449,12043,PAM,PAM
MAR - 450,12071,PAM,PAM
MAR - 451,12099,PAM,PAM
MAR - 452,12127,PAM,PAM
MAR - 453,12155,PAM,PAM
MAR - 454,12183,PAM,PAM
MAR - 455,12211,PAM,PAM
MAR - 456,12239,PAM,PAM
MAR - 457,12267,PAM,PAM
MAR - 458,12295,PAM,PAM
MAR - 459,12323,PAM,PAM
MAR - 460,12351,PAM,PAM
MAR - 461,12379,PAM,PAM
MAR - 462,12407,PAM,PAM
MAR - 463,12435,PAM,PAM
MAR - 464,12463,PAM,PAM
MAR - 465,12491,PAM,PAM
MAR - 466,12519,PAM,PAM
MAR - 467,12547,PAM,PAM
MAR - 468,12575,PAM,PAM
MAR - 469,12603,PAM,PAM
MAR - 470,12631,PAM,PAM
MAR - 471,12659,PAM,PAM
MAR - 472,12687,PAM,PAM
MAR - 473,12715,PAM,PAM
MAR - 474,12743,PAM,PAM
MAR - 475,12771,PAM,PAM
MAR - 476,12798,PJD,PJD
MAR - 477,12826,PJD,PJD
MAR - 478,12854,PJD,PJD
MAR - 479,12882,PJD,PJD
MAR - 480,12910,PJD,PJD
MAR - 481,12938,PJD,PJD
MAR - 482,12966,PJD,PJD
MAR - 483,12994,PJD,PJD
MAR - 484,13022,PJD,PJD
MAR - 485,13050,PJD,PJD
MAR - 486,13078,PJD,PJD
MAR - 487,13106,PJD,PJD
MAR - 488,13134,PJD,PJD
MAR - 489,13162,PJD,PJD
MAR - 490,13190,PJD,PJD
MAR - 491,13218,PJD,PJD
MAR - 492,13246,PJD,PJD
MAR - 493,13274,PJD,PJD
MAR - 494,13302,PJD,PJD
MAR - 495,13330,PJD,PJD
MAR - 496,13358,PJD,PJD
MAR - 497,13386,PJD,PJD
MAR - 498,13414,PJD,PJD
MAR - 499,13442,PJD,PJD
MAR - 500,13470,PJD,PJD
MAR - 501,13498,PJD,PJD
MAR - 502,13526,PJD,PJD
MAR - 503,13554,PJD,PJD
MAR - 504,13582,PJD,PJD
MAR - 505,13610,PJD,PJD
MAR - 506,13638,PJD,PJD
MAR - 507,13666,PJD,PJD
MAR - 508,13694,PJD,PJD
MAR - 509,13722,PJD,PJD
MAR - 510,13750,PJD,PJD
MAR - 511,13783,RNI,RNI
MAR - 512,13811,RNI,RNI
MAR - 513,13839,RNI,RNI
MAR - 514,13867,RNI,RNI
MAR - 515,13895,RNI,RNI
MAR - 516,13923,RNI,RNI
MAR - 517,13951,RNI,RNI
MAR - 518,13979,RNI,RNI
MAR - 519,14007,RNI,RNI
MAR - 520,14035,RNI,RNI
MAR - 521,14063,RNI,RNI
MAR - 522,14091,RNI,RNI
MAR - 523,14119,RNI,RNI
MAR - 524,14147,RNI,RNI
MAR - 525,14175,RNI,RNI
MAR - 526,14203,RNI,RNI
MAR - 527,14231,RNI,RNI
MAR - 528,14259,RNI,RNI
MAR - 529,14287,RNI,RNI
MAR - 530,14315,RNI,RNI
MAR - 531,14343,RNI,RNI
MAR - 532,14371,RNI,RNI
MAR - 533,14399,RNI,RNI
MAR - 534,14427,RNI,RNI
MAR - 535,14455,RNI,RNI
MAR - 536,14483,RNI,RNI
MAR - 537,14511,RNI,RNI
MAR - 538,14539,RNI,RNI
MAR - 539,14567,RNI,RNI
MAR - 540,14595,RNI,RNI
MAR - 541,14623,RNI,RNI
MAR - 542,14651,RNI,RNI
MAR - 543,14679,RNI,RNI
MAR - 544,14707,RNI,RNI
MAR - 545,14735,RNI,RNI
MAR - 546,14763,RNI,RNI
MAR - 547,14791,RNI,RNI
MAR - 548,14819,RNI,RNI
MAR - 549,14847,RNI,RNI
MAR - 550,14875,RNI,RNI
MAR - 551,14903,RNI,RNI
MAR - 552,14931,RNI,RNI
MAR - 553,14959,RNI,RNI
MAR - 554,14987,RNI,RNI
MAR - 555,15015,RNI,RNI
MAR - 556,15043,RNI,RNI
MAR - 557,15071,RNI,RNI
MAR - 558,15099,RNI,RNI
MAR - 559,15127,RNI,RNI
MAR - 560,15155,RNI,RNI
MAR - 561,15183,RNI,RNI
MAR - 562,15211,RNI,RNI
MAR - 563,15239,RNI,RNI
MAR - 564,15262,PJD,PJD
MAR - 565,15295,RNI,RNI
MAR - 566,15323,RNI,RNI
MAR - 567,15351,RNI,RNI
MAR - 568,15379,RNI,RNI
MAR - 569,15407,RNI,RNI
MAR - 570,15435,RNI,RNI
MAR - 571,15463,RNI,RNI
MAR - 572,15491,RNI,RNI
MAR - 573,15519,RNI,RNI
MAR - 574,15547,RNI,RNI
MAR - 575,15575,RNI,RNI
MAR - 576,15603,RNI,RNI
MAR - 577,15631,RNI,RNI
MAR - 578,15659,RNI,RNI
MAR - 579,15687,RNI,RNI
MAR - 580,15715,RNI,RNI
MAR - 581,15743,RNI,RNI
MAR - 582,15771,RNI,RNI
MAR - 583,15799,RNI,RNI
MAR - 584,15827,RNI,RNI
MAR - 585,15855,RNI,RNI
MAR - 586,15883,RNI,RNI
MAR - 587,15911,RNI,RNI
MAR - 588,15939,RNI,RNI
MAR - 589,15967,RNI,RNI
MAR - 590,15995,RNI,RNI
MAR - 591,16023,RNI,RNI
MAR - 592,16051,RNI,RNI
MAR - 593,16079,RNI,RNI
MAR - 594,16107,RNI,RNI
MAR - 595,16135,RNI,RNI
MAR - 596,16163,RNI,RNI
MAR - 597,16191,RNI,RNI
MAR - 598,16219,RNI,RNI
MAR - 599,16247,RNI,RNI
MAR - 600,16275,RNI,RNI
MAR - 601,16303,RNI,RNI
MAR - 602,16331,RNI,RNI
MAR - 603,16359,RNI,RNI
MAR - 604,16387,RNI,RNI
MAR - 605,16415,RNI,RNI
MAR - 606,16443,RNI,RNI
MAR - 607,16471,RNI,RNI
MAR - 608,16499,RNI,RNI
MAR - 609,16527,RNI,RNI
MAR - 610,16555,RNI,RNI
MAR - 611,16583,RNI,RNI
MAR - 612,16611,RNI,RNI
MAR - 613,16639,RNI,RNI
MAR - 614,16667,RNI,RNI
MAR - 615,16695,RNI,RNI
MAR - 616,16723,RNI,RNI
MAR - 617,16751,RNI,RNI
MAR - 618,16779,RNI,RNI
MAR - 619,16807,RNI,RNI
MAR - 620,16835,RNI,RNI
MAR - 621,16863,RNI,RNI
MAR - 622,16891,RNI,RNI
MAR - 623,16919,RNI,RNI
MAR - 624,16947,RNI,RNI
MAR - 625,16975,RNI,RNI
MAR - 626,17003,RNI,RNI
MAR - 627,17031,RNI,RNI
MAR - 628,17059,RNI,RNI
MAR - 629,17087,RNI,RNI
MAR - 630,17115,RNI,RNI
MAR - 631,17143,RNI,RNI
MAR - 632,17171,RNI,RNI
MAR - 633,17199,RNI,RNI
MAR - 634,17227,RNI,RNI
MAR - 635,17251,PAM,PAM
MAR - 636,17279,PAM,PAM
MAR - 637,17307,PAM,PAM
MAR - 638,17335,PAM,PAM
MAR - 639,17363,PAM,PAM
MAR - 640,17391,PAM,PAM
MAR - 641,17419,PAM,PAM
MAR - 642,17447,PAM,PAM
MAR - 643,17475,PAM,PAM
MAR - 644,17503,PAM,PAM
MAR - 645,17531,PAM,PAM
MAR - 646,17559,PAM,PAM
MAR - 647,17587,PAM,PAM
MAR - 648,17615,PAM,PAM
MAR - 649,17643,PAM,PAM
MAR - 650,17671,PAM,PAM
MAR - 651,17699,PAM,PAM
MAR - 652,17727,PAM,PAM
MAR - 653,17759,RNI,RNI
MAR - 654,17787,RNI,RNI
MAR - 655,17815,RNI,RNI
MAR - 656,17843,RNI,RNI
MAR - 657,17871,RNI,RNI
MAR - 658,17899,RNI,RNI
MAR - 659,17927,RNI,RNI
MAR - 660,17955,RNI,RNI
MAR - 661,17983,RNI,RNI
MAR - 662,18011,RNI,RNI
MAR - 663,18039,RNI,RNI
MAR - 664,18067,RNI,RNI
MAR - 665,18095,RNI,RNI
MAR - 666,18123,RNI,RNI
MAR - 667,18151,RNI,RNI
MAR - 668,18179,RNI,RNI
MAR - 669,18207,RNI,RNI
MAR - 670,18235,RNI,RNI
MAR - 671,18263,RNI,RNI
MAR - 672,18291,RNI,RNI
MAR - 673,18319,RNI,RNI
MAR - 674,18347,RNI,RNI
MAR - 675,18375,RNI,RNI
MAR - 676,18403,RNI,RNI
MAR - 677,18431,RNI,RNI
MAR - 678,18459,RNI,RNI
MAR - 679,18487,RNI,RNI
MAR - 680,18515,RNI,RNI
MAR - 681,18543,RNI,RNI
MAR - 682,18571,RNI,RNI
MAR - 683,18599,RNI,RNI
MAR - 684,18627,RNI,RNI
MAR - 685,18655,RNI,RNI
MAR - 686,18683,RNI,RNI
MAR - 687,18711,RNI,RNI
MAR - 688,18739,RNI,RNI
MAR - 689,18767,RNI,RNI
MAR - 690,18795,RNI,RNI
MAR - 691,18823,RNI,RNI
MAR - 692,18851,RNI,RNI
MAR - 693,18879,RNI,RNI
MAR - 694,18907,RNI,RNI
MAR - 695,18935,RNI,RNI
MAR - 696,18963,RNI,RNI
MAR - 697,18991,RNI,RNI
MAR - 698,19019,RNI,RNI
MAR - 699,19047,RNI,RNI
MAR - 700,19075,RNI,RNI
MAR - 701,19103,RNI,RNI
MAR - 702,19131,RNI,RNI
MAR - 703,19159,RNI,RNI
MAR - 704,19187,RNI,RNI
MAR - 705,19215,RNI,RNI
MAR - 706,19243,RNI,RNI
MAR - 707,19271,RNI,RNI
MAR - 708,19299,RNI,RNI
MAR - 709,19327,RNI,RNI
MAR - 710,19355,RNI,RNI
MAR - 711,19383,RNI,RNI
MAR - 712,19411,RNI,RNI
MAR - 713,19439,RNI,RNI
MAR - 714,19467,RNI,RNI
MAR - 715,19495,RNI,RNI
MAR - 716,19523,RNI,RNI
MAR - 717,19551,RNI,RNI
MAR - 718,19579,RNI,RNI
MAR - 719,19607,RNI,RNI
MAR - 720,19635,RNI,RNI
MAR - 721,19663,RNI,RNI
MAR - 722,19691,RNI,RNI
MAR - 723,19719,RNI,RNI
MAR - 724,19747,RNI,RNI
MAR - 725,19775,RNI,RNI
MAR - 726,19799,PAM,PAM
MAR - 727,19827,PAM,PAM
MAR - 728,19855,PAM,PAM
MAR - 729,19883,PAM,PAM
MAR - 730,19911,PAM,PAM
MAR - 731,19939,PAM,PAM
MAR - 732,19967,PAM,PAM
MAR - 733,19995,PAM,PAM
MAR - 734,20023,PAM,PAM
MAR - 735,20051,PAM,PAM
MAR - 736,20079,PAM,PAM
MAR - 737,20107,PAM,PAM
MAR - 738,20135,PAM,PAM
MAR - 739,20163,PAM,PAM
MAR - 740,20191,PAM,PAM
MAR - 741,20219,PAM,PAM
MAR - 742,20247,PAM,PAM
MAR - 743,20275,PAM,PAM
MAR - 744,20303,PAM,PAM
MAR - 745,20331,PAM,PAM
MAR - 746,20359,PAM,PAM
MAR - 747,20387,PAM,PAM
MAR - 748,20415,PAM,PAM
MAR - 749,20443,PAM,PAM
MAR - 750,20471,PAM,PAM
MAR - 751,20499,PAM,PAM
MAR - 752,20527,PAM,PAM
MAR - 753,20555,PAM,PAM
MAR - 754,20583,PAM,PAM
MAR - 755,20611,PAM,PAM
MAR - 756,20639,PAM,PAM
MAR - 757,20667,PAM,PAM
MAR - 758,20695,PAM,PAM
MAR - 759,20723,PAM,PAM
MAR - 760,20751,PAM,PAM
MAR - 761,20779,PAM,PAM
MAR - 762,20807,PAM,PAM
MAR - 763,20835,PAM,PAM
MAR - 764,20867,RNI,RNI
MAR - 766,20895,RNI,RNI
MAR - 767,20923,RNI,RNI
MAR - 768,20951,RNI,RNI
MAR - 769,20979,RNI,RNI
MAR - 770,21007,RNI,RNI
MAR - 771,21035,RNI,RNI
MAR - 772,21063,RNI,RNI
MAR - 773,21091,RNI,RNI
MAR - 774,21119,RNI,RNI
MAR - 776,21147,RNI,RNI
MAR - 777,21175,RNI,RNI
MAR - 780,21203,RNI,RNI
MAR - 781,21231,RNI,RNI
MAR - 782,21259,RNI,RNI
MAR - 783,21287,RNI,RNI
MAR - 785,21315,RNI,RNI
MAR - 786,21343,RNI,RNI
MAR - 787,21371,RNI,RNI
MAR - 788,21399,RNI,RNI
MAR - 789,21423,PAM,PAM
MAR - 790,21451,PAM,PAM
MAR - 791,21483,RNI,RNI
MAR - 792,21507,PAM,PAM
MAR - 793,21535,PAM,PAM
MAR - 794,21563,PAM,PAM
MAR - 795,21591,PAM,PAM
MAR - 796,21619,PAM,PAM
MAR - 797,21647,PAM,PAM
MAR - 798,21675,PAM,PAM
MAR - 799,21703,PAM,PAM
MAR - 800,21731,PAM,PAM
MAR - 801,21759,PAM,PAM
MAR - 802,21787,PAM,PAM
MAR - 803,21815,PAM,PAM
MAR - 804,21843,PAM,PAM
MAR - 805,21871,PAM,PAM
MAR - 806,21899,PAM,PAM
MAR - 807,21927,PAM,PAM
MAR - 808,21955,PAM,PAM
MAR - 809,21983,PAM,PAM
MAR - 810,22011,PAM,PAM
MAR - 811,22039,PAM,PAM
MAR - 812,22067,PAM,PAM
MAR - 813,22095,PAM,PAM
MAR - 814,22148,USAPMD,USAPMD
MAR - 815,22176,USAPMD,USAPMD
MAR - 816,22204,USAPMD,USAPMD
MAR - 817,22232,USAPMD,USAPMD
MAR - 818,22260,USAPMD,USAPMD
MAR - 819,22288,USAPMD,USAPMD
MAR - 820,22316,USAPMD,USAPMD
MAR - 821,22344,USAPMD,USAPMD
MAR - 822,22372,USAPMD,USAPMD
MAR - 823,22400,USAPMD,USAPMD
MAR - 824,22428,USAPMD,USAPMD
MAR - 825,22456,USAPMD,USAPMD
MAR - 826,22458,PJD,PJD
MAR - 827,22486,PJD,PJD
MAR - 828,22514,PJD,PJD
MAR - 829,22542,PJD,PJD
MAR - 830,22570,PJD,PJD
MAR - 831,22598,PJD,PJD
MAR - 832,22626,PJD,PJD
MAR - 833,22654,PJD,PJD
MAR - 834,22682,PJD,PJD
MAR - 835,22710,PJD,PJD
MAR - 836,22738,PJD,PJD
MAR - 837,22766,PJD,PJD
MAR - 838,22794,PJD,PJD
MAR - 839,22827,RNI,RNI
MAR - 840,22850,PJD,PJD
MAR - 841,22878,PJD,PJD
MAR - 842,22906,PJD,PJD
MAR - 843,22934,PJD,PJD
MAR - 844,22962,PJD,PJD
MAR - 845,22990,PJD,PJD
MAR - 846,23018,PJD,PJD
MAR - 847,23046,PJD,PJD
MAR - 848,23074,PJD,PJD
MAR - 849,23102,PJD,PJD
MAR - 850,23130,PJD,PJD
MAR - 851,23158,PJD,PJD
MAR - 852,23186,PJD,PJD
MAR - 853,23214,PJD,PJD
MAR - 854,23242,PJD,PJD
MAR - 855,23270,PJD,PJD
MAR - 856,23298,PJD,PJD
MAR - 858,23326,PJD,PJD
MAR - 859,23354,PJD,PJD
MAR - 860,23382,PJD,PJD
MAR - 861,23410,PJD,PJD
MAR - 862,23438,PJD,PJD
MAR - 863,23466,PJD,PJD
MAR - 864,23494,PJD,PJD
MAR - 865,23522,PJD,PJD
MAR - 866,23550,PJD,PJD
MAR - 867,23578,PJD,PJD
MAR - 868,23606,PJD,PJD
MAR - 869,23634,PJD,PJD
MAR - 870,23662,PJD,PJD
MAR - 871,23690,PJD,PJD
MAR - 872,23718,PJD,PJD
MAR - 873,23746,PJD,PJD
MAR - 874,23774,PJD,PJD
MAR - 875,23802,PJD,PJD
MAR - 876,23830,PJD,PJD
MAR - 877,23858,PJD,PJD
MAR - 878,23886,PJD,PJD
MAR - 879,23914,PJD,PJD
MAR - 880,23942,PJD,PJD
MAR - 881,23970,PJD,PJD
MAR - 882,23998,PJD,PJD
MAR - 883,24026,PJD,PJD
MAR - 884,24054,PJD,PJD
MAR - 885,24082,PJD,PJD
MAR - 886,24110,PJD,PJD
MAR - 887,24138,PJD,PJD
MAR - 888,24166,PJD,PJD
MAR - 889,24194,PJD,PJD
MAR - 890,24222,PJD,PJD
MAR - 891,24255,RNI,RNI
MAR - 892,24283,RNI,RNI
MAR - 896,24311,RNI,RNI
MAR - 897,24339,RNI,RNI
MAR - 898,24367,RNI,RNI
MAR - 899,24395,RNI,RNI
MAR - 900,24423,RNI,RNI
MAR - 901,24451,RNI,RNI
MAR - 902,24479,RNI,RNI
MAR - 903,24507,RNI,RNI
MAR - 904,24535,RNI,RNI
MAR - 905,24563,RNI,RNI
MAR - 906,24591,RNI,RNI
MAR - 907,24619,RNI,RNI
MAR - 908,24647,RNI,RNI
MAR - 909,24675,RNI,RNI
MAR - 910,24703,RNI,RNI
MAR - 911,24731,RNI,RNI
MAR - 912,24759,RNI,RNI
MAR - 913,24787,RNI,RNI
MAR - 914,24815,RNI,RNI
MAR - 915,24843,RNI,RNI
MAR - 916,24871,RNI,RNI
MAR - 917,24899,RNI,RNI
MAR - 918,24927,RNI,RNI
MAR - 919,24955,RNI,RNI
MAR - 920,24983,RNI,RNI
MAR - 921,25011,RNI,RNI
MAR - 922,25039,RNI,RNI
MAR - 923,25067,RNI,RNI
MAR - 924,25095,RNI,RNI
MAR - 925,25123,RNI,RNI
MAR - 926,25151,RNI,RNI
MAR - 927,25179,RNI,RNI
MAR - 928,25207,RNI,RNI
MAR - 929,25235,RNI,RNI
MAR - 930,25263,RNI,RNI
MAR - 931,25291,RNI,RNI
MAR - 932,25319,RNI,RNI
MAR - 933,25347,RNI,RNI
MAR - 934,25375,RNI,RNI
MAR - 935,25403,RNI,RNI
MAR - 936,25431,RNI,RNI
MAR - 937,25459,RNI,RNI
MAR - 938,25487,RNI,RNI
MAR - 940,25515,RNI,RNI
MAR - 941,25543,RNI,RNI
MAR - 943,25571,RNI,RNI
MAR - 944,25599,RNI,RNI
MAR - 945,25622,PJD,PJD
MAR - 946,25650,PJD,PJD
MAR - 947,25678,PJD,PJD
MAR - 948,25706,PJD,PJD
MAR - 949,25734,PJD,PJD
MAR - 950,25762,PJD,PJD
MAR - 951,25790,PJD,PJD
MAR - 952,25818,PJD,PJD
MAR - 953,25846,PJD,PJD
MAR - 954,25874,PJD,PJD
MAR - 955,25902,PJD,PJD
MAR - 956,25930,PJD,PJD
MAR - 957,25958,PJD,PJD
MAR - 958,25986,PJD,PJD
MAR - 959,26014,PJD,PJD
MAR - 960,26042,PJD,PJD
MAR - 961,26070,PJD,PJD
MAR - 962,26098,PJD,PJD
MAR - 963,26126,PJD,PJD
MAR - 964,26154,PJD,PJD
MAR - 965,26182,PJD,PJD
MAR - 966,26210,PJD,PJD
MAR - 967,26238,PJD,PJD
MAR - 968,26266,PJD,PJD
MAR - 969,26294,PJD,PJD
MAR - 970,26322,PJD,PJD
MAR - 971,26350,PJD,PJD
MAR - 972,26378,PJD,PJD
MAR - 973,26406,PJD,PJD
MAR - 974,26434,PJD,PJD
MAR - 975,26462,PJD,PJD
MAR - 978,26490,PJD,PJD
MAR - 979,26518,PJD,PJD
MAR - 980,26546,PJD,PJD
MAR - 981,26574,PJD,PJD
MAR - 982,26602,PJD,PJD
MAR - 983,26630,PJD,PJD
MAR - 984,26658,PJD,PJD
MAR - 985,26686,PJD,PJD
MAR - 986,26714,PJD,PJD
MAR - 987,26742,PJD,PJD
MAR - 988,26770,PJD,PJD
MAR - 989,26798,PJD,PJD
MAR - 990,26826,PJD,PJD
MAR - 991,26854,PJD,PJD
MAR - 992,26882,PJD,PJD
MAR - 993,26910,PJD,PJD
MAR - 994,26938,PJD,PJD
MAR - 995,26966,PJD,PJD
MAR - 996,26994,PJD,PJD
MAR - 997,27022,PJD,PJD
MAR - 998,27050,PJD,PJD
MAR - 999,27078,PJD,PJD
MAR - 1000,27111,RNI,RNI
MAR - 1001,27139,RNI,RNI
MAR - 1002,27167,RNI,RNI
MAR - 1003,27195,RNI,RNI
MAR - 1004,27223,RNI,RNI
MAR - 1005,27251,RNI,RNI
MAR - 1006,27279,RNI,RNI
MAR - 1007,27307,RNI,RNI
MAR - 1008,27335,RNI,RNI
MAR - 1009,27363,RNI,RNI
MAR - 1010,27391,RNI,RNI
MAR - 1011,27419,RNI,RNI
MAR - 1012,27447,RNI,RNI
MAR - 1013,27475,RNI,RNI
MAR - 1014,27503,RNI,RNI
MAR - 1015,27531,RNI,RNI
MAR - 1016,27559,RNI,RNI
MAR - 1017,27587,RNI,RNI
MAR - 1018,27615,RNI,RNI
MAR - 1019,27643,RNI,RNI
MAR - 1020,27671,RNI,RNI
MAR - 1021,27699,RNI,RNI
MAR - 1022,27727,RNI,RNI
MAR - 1023,27755,RNI,RNI
MAR - 1024,27783,RNI,RNI
MAR - 1025,27811,RNI,RNI
MAR - 1026,27839,RNI,RNI
MAR - 1027,27867,RNI,RNI
MAR - 1028,27895,RNI,RNI
MAR - 1029,27923,RNI,RNI
MAR - 1030,27951,RNI,RNI
MAR - 1031,27979,RNI,RNI
MAR - 1032,28007,RNI,RNI
MAR - 1033,28035,RNI,RNI
MAR - 1034,28063,RNI,RNI
MAR - 1035,28091,RNI,RNI
MAR - 1036,28119,RNI,RNI
MAR - 1037,28147,RNI,RNI
MAR - 1038,28175,RNI,RNI
MAR - 1039,28203,RNI,RNI
MAR - 1040,28231,RNI,RNI
MAR - 1041,28259,RNI,RNI
MAR - 1042,28287,RNI,RNI
MAR - 1043,28315,RNI,RNI
MAR - 1044,28343,RNI,RNI
MAR - 1045,28371,RNI,RNI
MAR - 1046,28399,RNI,RNI
MAR - 1047,28427,RNI,RNI
MAR - 1048,28455,RNI,RNI
MAR - 1049,28483,RNI,RNI
MAR - 1050,28511,RNI,RNI
MAR - 1051,28539,RNI,RNI
MAR - 1052,28567,RNI,RNI
MAR - 1053,28595,RNI,RNI
MAR - 1054,28623,RNI,RNI
MAR - 1055,28651,RNI,RNI
MAR - 1056,28679,RNI,RNI
MAR - 1057,28707,RNI,RNI
MAR - 1058,28735,RNI,RNI
MAR - 1059,28763,RNI,RNI
MAR - 1060,28791,RNI,RNI
MAR - 1061,28819,RNI,RNI
MAR - 1062,28847,RNI,RNI
MAR - 1063,28875,RNI,RNI
MAR - 1064,28903,RNI,RNI
MAR - 1065,28931,RNI,RNI
MAR - 1066,28959,RNI,RNI
MAR - 1067,28987,RNI,RNI
MAR - 1068,29015,RNI,RNI
MAR - 1069,29043,RNI,RNI
MAR - 1070,29071,RNI,RNI
MAR - 1071,29099,RNI,RNI
MAR - 1072,29127,RNI,RNI
MAR - 1073,29155,RNI,RNI
MAR - 1074,29183,RNI,RNI
MAR - 1075,29211,RNI,RNI
MAR - 1076,29239,RNI,RNI
MAR - 1077,29267,RNI,RNI
MAR - 1078,29295,RNI,RNI
MAR - 1079,29323,RNI,RNI
MAR - 1080,29351,RNI,RNI
MAR - 1081,29379,RNI,RNI
MAR - 1082,29407,RNI,RNI
MAR - 1083,29435,RNI,RNI
MAR - 1084,29463,RNI,RNI
MAR - 1085,29491,RNI,RNI
MAR - 1086,29519,RNI,RNI
MAR - 1087,29547,RNI,RNI
MAR - 1088,29575,RNI,RNI
MAR - 1089,29603,RNI,RNI
MAR - 1090,29631,RNI,RNI
MAR - 1091,29659,RNI,RNI
MAR - 1092,29687,RNI,RNI
MAR - 1093,29715,RNI,RNI
MAR - 1094,29743,RNI,RNI
MAR - 1095,29771,RNI,RNI
MAR - 1096,29799,RNI,RNI
MAR - 1097,29827,RNI,RNI
MAR - 1098,29855,RNI,RNI
MAR - 1099,29883,RNI,RNI
MAR - 1100,29911,RNI,RNI
MAR - 1101,29939,RNI,RNI
MAR - 1102,29967,RNI,RNI
MAR - 1103,29995,RNI,RNI
MAR - 1104,30023,RNI,RNI
MAR - 1105,30051,RNI,RNI
MAR - 1106,30079,RNI,RNI
MAR - 1107,30107,RNI,RNI
MAR - 1108,30135,RNI,RNI
MAR - 1109,30163,RNI,RNI
MAR - 1110,30191,RNI,RNI
MAR - 1111,30219,RNI,RNI
MAR - 1112,30247,RNI,RNI
MAR - 1113,30275,RNI,RNI
MAR - 1114,30303,RNI,RNI
MAR - 1115,30331,RNI,RNI
MAR - 1116,30359,RNI,RNI
MAR - 1117,30387,RNI,RNI
MAR - 1118,30415,RNI,RNI
MAR - 1119,30443,RNI,RNI
MAR - 1120,30471,RNI,RNI
MAR - 1121,30499,RNI,RNI
MAR - 1122,30527,RNI,RNI
MAR - 1123,30555,RNI,RNI
MAR - 1124,30583,RNI,RNI
MAR - 1125,30611,RNI,RNI
MAR - 1126,30639,RNI,RNI
MAR - 1127,30667,RNI,RNI
MAR - 1128,30695,RNI,RNI
MAR - 1129,30723,RNI,RNI
MAR - 1130,30751,RNI,RNI
MAR - 1131,30779,RNI,RNI
MAR - 1132,30807,RNI,RNI
MAR - 1133,30835,RNI,RNI
MAR - 1134,30863,RNI,RNI
MAR - 1135,30891,RNI,RNI
MAR - 1136,30919,RNI,RNI
MAR - 1137,30947,RNI,RNI
MAR - 1138,30975,RNI,RNI
MAR - 1139,31003,RNI,RNI
MAR - 1140,31031,RNI,RNI
MAR - 1141,31059,RNI,RNI
MAR - 1142,31087,RNI,RNI
MAR - 1143,31115,RNI,RNI
MAR - 1144,31143,RNI,RNI
MAR - 1145,31171,RNI,RNI
MAR - 1146,31199,RNI,RNI
MAR - 1147,31227,RNI,RNI
MAR - 1148,31255,RNI,RNI
MAR - 1149,31283,RNI,RNI
MAR - 1150,31311,RNI,RNI
MAR - 1151,31339,RNI,RNI
MAR - 1152,31367,RNI,RNI
MAR - 1153,31395,RNI,RNI
MAR - 1154,31423,RNI,RNI
MAR - 1155,31451,RNI,RNI
MAR - 1156,31479,RNI,RNI
MAR - 1157,31507,RNI,RNI
MAR - 1158,31535,RNI,RNI
MAR - 1159,31563,RNI,RNI
MAR - 1160,31591,RNI,RNI
MAR - 1161,31619,RNI,RNI
MAR - 1162,31647,RNI,RNI
MAR - 1163,31675,RNI,RNI
MAR - 1164,31703,RNI,RNI
MAR - 1165,31731,RNI,RNI
MAR - 1166,31759,RNI,RNI
MAR - 1167,31787,RNI,RNI
MAR - 1168,31815,RNI,RNI
MAR - 1169,31843,RNI,RNI
MAR - 1170,31871,RNI,RNI
MAR - 1171,31899,RNI,RNI
MAR - 1172,31927,RNI,RNI
MAR - 1173,31955,RNI,RNI
MAR - 1174,31983,RNI,RNI
MAR - 1175,32011,RNI,RNI
MAR - 1176,32039,RNI,RNI
MAR - 1177,32067,RNI,RNI
MAR - 1178,32095,RNI,RNI
MAR - 1179,32123,RNI,RNI
MAR - 1180,32151,RNI,RNI
MAR - 1181,32179,RNI,RNI
MAR - 1182,32207,RNI,RNI
MAR - 1183,32235,RNI,RNI
MAR - 1184,32263,RNI,RNI
MAR - 1185,32291,RNI,RNI
MAR - 1186,32319,RNI,RNI
MAR - 1187,32347,RNI,RNI
MAR - 1188,32375,RNI,RNI
MAR - 1189,32403,RNI,RNI
MAR - 1190,32431,RNI,RNI
MAR - 1191,32459,RNI,RNI
MAR - 1192,32487,RNI,RNI
MAR - 1193,32515,RNI,RNI
MAR - 1194,32543,RNI,RNI
MAR - 1195,32571,RNI,RNI
MAR - 1196,32599,RNI,RNI
MAR - 1197,32627,RNI,RNI
MAR - 1198,32655,RNI,RNI
MAR - 1199,32683,RNI,RNI
MAR - 1200,32711,RNI,RNI
MAR - 1201,32739,RNI,RNI
MAR - 1202,32767,RNI,RNI
MAR - 1203,32795,RNI,RNI
MAR - 1204,32823,RNI,RNI
MAR - 1205,32851,RNI,RNI
MAR - 1206,32879,RNI,RNI
MAR - 1207,32907,RNI,RNI
MAR - 1208,32935,RNI,RNI
MAR - 1209,32963,RNI,RNI
MAR - 1210,32991,RNI,RNI
MAR - 1211,33019,RNI,RNI
MAR - 1212,33047,RNI,RNI
MAR - 1213,33075,RNI,RNI
MAR - 1214,33103,RNI,RNI
MAR - 1215,33131,RNI,RNI
MAR - 1216,33159,RNI,RNI
MAR - 1217,33187,RNI,RNI
MAR - 1218,33215,RNI,RNI
MAR - 1219,33243,RNI,RNI
MAR - 1220,33271,RNI,RNI
MAR - 1221,33299,RNI,RNI
MAR - 1222,33327,RNI,RNI
MAR - 1223,33355,RNI,RNI
MAR - 1224,33383,RNI,RNI
MAR - 1225,33411,RNI,RNI
MAR - 1226,33439,RNI,RNI
MAR - 1227,33467,RNI,RNI
MAR - 1228,33495,RNI,RNI
MAR - 1229,33523,RNI,RNI
MAR - 1230,33551,RNI,RNI
MAR - 1231,33579,RNI,RNI
MAR - 1232,33607,RNI,RNI
MAR - 1233,33635,RNI,RNI
MAR - 1234,33663,RNI,RNI
MAR - 1235,33691,RNI,RNI
MAR - 1236,33719,RNI,RNI
MAR - 1237,33747,RNI,RNI
MAR - 1238,33775,RNI,RNI
MAR - 1239,33803,RNI,RNI
MAR - 1240,33831,RNI,RNI
MAR - 1241,33859,RNI,RNI
MAR - 1242,33887,RNI,RNI
MAR - 1243,33915,RNI,RNI
MAR - 1244,33943,RNI,RNI
MAR - 1245,33967,PAM,PAM
MAR - 1246,33995,PAM,PAM
MAR - 1247,34023,PAM,PAM
MAR - 1248,34051,PAM,PAM
MAR - 1249,34079,PAM,PAM
MAR - 1250,34107,PAM,PAM
MAR - 1251,34135,PAM,PAM
MAR - 1252,34163,PAM,PAM
MAR - 1253,34191,PAM,PAM
MAR - 1254,34219,PAM,PAM
MAR - 1255,34247,PAM,PAM
MAR - 1256,34275,PAM,PAM
MAR - 1257,34303,PAM,PAM
MAR - 1258,34331,PAM,PAM
MAR - 1259,34359,PAM,PAM
MAR - 1260,34387,PAM,PAM
MAR - 1261,34415,PAM,PAM
MAR - 1262,34443,PAM,PAM
MAR - 1263,34471,PAM,PAM
MAR - 1264,34499,PAM,PAM
MAR - 1265,34527,PAM,PAM
MAR - 1266,34555,PAM,PAM
MAR - 1267,34583,PAM,PAM
MAR - 1268,34611,PAM,PAM
MAR - 1269,34639,PAM,PAM
MAR - 1270,34667,PAM,PAM
MAR - 1271,34695,PAM,PAM
MAR - 1272,34723,PAM,PAM
MAR - 1273,34751,PAM,PAM
MAR - 1274,34779,PAM,PAM
MAR - 1275,34807,PAM,PAM
MAR - 1276,34835,PAM,PAM
MAR - 1277,34863,PAM,PAM
MAR - 1278,34891,PAM,PAM
MAR - 1279,34919,PAM,PAM
MAR - 1280,34947,PAM,PAM
MAR - 1281,34975,PAM,PAM
MAR - 1282,35003,PAM,PAM
MAR - 1283,35031,PAM,PAM
MAR - 1284,35059,PAM,PAM
MAR - 1285,35087,PAM,PAM
MAR - 1286,35115,PAM,PAM
MAR - 1287,35143,PAM,PAM
MAR - 1288,35171,PAM,PAM
MAR - 1289,35199,PAM,PAM
MAR - 1290,35227,PAM,PAM
MAR - 1291,35255,PAM,PAM
MAR - 1292,35283,PAM,PAM
MAR - 1293,35311,PAM,PAM
MAR - 1294,35339,PAM,PAM
MAR - 1295,35367,PAM,PAM
MAR - 1296,35395,PAM,PAM
MAR - 1297,35423,PAM,PAM
MAR - 1298,35451,PAM,PAM
MAR - 1299,35479,PAM,PAM
MAR - 1300,35507,PAM,PAM
MAR - 1301,35535,PAM,PAM
MAR - 1302,35563,PAM,PAM
MAR - 1303,35591,PAM,PAM
MAR - 1304,35619,PAM,PAM
MAR - 1305,35647,PAM,PAM
MAR - 1306,35675,PAM,PAM
MAR - 1307,35703,PAM,PAM
MAR - 1308,35731,PAM,PAM
MAR - 1309,35759,PAM,PAM
MAR - 1310,35787,PAM,PAM
MAR - 1311,35815,PAM,PAM
MAR - 1312,35843,PAM,PAM
MAR - 1313,35871,PAM,PAM
MAR - 1314,35899,PAM,PAM
MAR - 1315,35927,PAM,PAM
MAR - 1316,35955,PAM,PAM
MAR - 1317,35982,PJD,PJD
MAR - 1318,36010,PJD,PJD
MAR - 1319,36038,PJD,PJD
MAR - 1320,36066,PJD,PJD
MAR - 1321,36094,PJD,PJD
MAR - 1322,36127,RNI,RNI
MAR - 1323,36155,RNI,RNI
MAR - 1324,36183,RNI,RNI
MAR - 1325,36211,RNI,RNI
MAR - 1326,36239,RNI,RNI
MAR - 1327,36267,RNI,RNI
MAR - 1328,36295,RNI,RNI
MAR - 1329,36323,RNI,RNI
MAR - 1330,36351,RNI,RNI
MAR - 1331,36379,RNI,RNI
MAR - 1332,36407,RNI,RNI
MAR - 1333,36435,RNI,RNI
MAR - 1334,36463,RNI,RNI
MAR - 1335,36491,RNI,RNI
MAR - 1336,36519,RNI,RNI
MAR - 1337,36547,RNI,RNI
MAR - 1338,36575,RNI,RNI
MAR - 1339,36603,RNI,RNI
MAR - 1340,36631,RNI,RNI
MAR - 1341,36655,PAM,PAM
MAR - 1342,36683,PAM,PAM
MAR - 1343,36711,PAM,PAM
MAR - 1344,36739,PAM,PAM
MAR - 1345,36767,PAM,PAM
MAR - 1346,36795,PAM,PAM
MAR - 1347,36823,PAM,PAM
MAR - 1348,36851,PAM,PAM
MAR - 1349,36879,PAM,PAM
MAR - 1350,36907,PAM,PAM
MAR - 1351,36935,PAM,PAM
MAR - 1352,36963,PAM,PAM
MAR - 1353,36991,PAM,PAM
MAR - 1354,37019,PAM,PAM
MAR - 1355,37047,PAM,PAM
MAR - 1358,37075,PAM,PAM
MAR - 1359,37103,PAM,PAM
MAR - 1360,37131,PAM,PAM
MAR - 1361,37159,PAM,PAM
MAR - 1362,37187,PAM,PAM
MAR - 1363,37215,PAM,PAM
MAR - 1364,37243,PAM,PAM
MAR - 1365,37271,PAM,PAM
MAR - 1366,37299,PAM,PAM
MAR - 1367,37327,PAM,PAM
MAR - 1368,37355,PAM,PAM
MAR - 1369,37383,PAM,PAM
MAR - 1370,37411,PAM,PAM
MAR - 1371,37439,PAM,PAM
MAR - 1372,37471,RNI,RNI
MAR - 1373,37499,RNI,RNI
MAR - 1374,37527,RNI,RNI
MAR - 1375,37555,RNI,RNI
MAR - 1377,37583,RNI,RNI
MAR - 1378,37611,RNI,RNI
MAR - 1380,37639,RNI,RNI
MAR - 1383,37662,PJD,PJD
MAR - 1384,37690,PJD,PJD
MAR - 1385,37718,PJD,PJD
MAR - 1386,37746,PJD,PJD
MAR - 1387,37774,PJD,PJD
MAR - 1388,37802,PJD,PJD
MAR - 1389,37830,PJD,PJD
MAR - 1390,37858,PJD,PJD
MAR - 1391,37886,PJD,PJD
MAR - 1392,37914,PJD,PJD
MAR - 1393,37942,PJD,PJD
MAR - 1394,37970,PJD,PJD
MAR - 1395,37998,PJD,PJD
MAR - 1396,38026,PJD,PJD
MAR - 1397,38054,PJD,PJD
MAR - 1398,38082,PJD,PJD
MAR - 1399,38110,PJD,PJD
MAR - 1400,38138,PJD,PJD
MAR - 1401,38166,PJD,PJD
MAR - 1402,38194,PJD,PJD
MAR - 1403,38222,PJD,PJD
MAR - 1404,38250,PJD,PJD
MAR - 1405,38278,PJD,PJD
MAR - 1406,38306,PJD,PJD
MAR - 1407,38334,PJD,PJD
MAR - 1408,38362,PJD,PJD
MAR - 1409,38390,PJD,PJD
MAR - 1410,38418,PJD,PJD
MAR - 1411,38446,PJD,PJD
MAR - 1412,38474,PJD,PJD
MAR - 1413,38502,PJD,PJD
MAR - 1414,38530,PJD,PJD
MAR - 1415,38558,PJD,PJD
MAR - 1416,38586,PJD,PJD
MAR - 1417,38614,PJD,PJD
MAR - 1418,38647,RNI,RNI
MAR - 1419,38675,RNI,RNI
MAR - 1420,38703,RNI,RNI
MAR - 1421,38731,RNI,RNI
MAR - 1422,38759,RNI,RNI
MAR - 1423,38787,RNI,RNI
MAR - 1424,38815,RNI,RNI
MAR - 1425,38843,RNI,RNI
MAR - 1426,38871,RNI,RNI
MAR - 1427,38899,RNI,RNI
MAR - 1428,38927,RNI,RNI
MAR - 1429,38955,RNI,RNI
MAR - 1430,38983,RNI,RNI
MAR - 1431,39011,RNI,RNI
MAR - 1432,39039,RNI,RNI
MAR - 1433,39067,RNI,RNI
MAR - 1434,39095,RNI,RNI
MAR - 1435,39123,RNI,RNI
MAR - 1436,39151,RNI,RNI
MAR - 1437,39179,RNI,RNI
MAR - 1438,39207,RNI,RNI
MAR - 1439,39235,RNI,RNI
MAR - 1440,39263,RNI,RNI
MAR - 1441,39291,RNI,RNI
MAR - 1442,39319,RNI,RNI
MAR - 1443,39347,RNI,RNI
MAR - 1444,39375,RNI,RNI
MAR - 1445,39403,RNI,RNI
MAR - 1446,39431,RNI,RNI
MAR - 1447,39459,RNI,RNI
MAR - 1448,39487,RNI,RNI
MAR - 1449,39515,RNI,RNI
MAR - 1450,39543,RNI,RNI
MAR - 1451,39571,RNI,RNI
MAR - 1452,39599,RNI,RNI
MAR - 1453,39627,RNI,RNI
MAR - 1454,39655,RNI,RNI
MAR - 1455,39683,RNI,RNI
MAR - 1456,39711,RNI,RNI
MAR - 1457,39739,RNI,RNI
MAR - 1458,39767,RNI,RNI
MAR - 1459,39795,RNI,RNI
MAR - 1460,39823,RNI,RNI
MAR - 1461,39851,RNI,RNI
MAR - 1462,39879,RNI,RNI
MAR - 1463,39907,RNI,RNI
MAR - 1464,39935,RNI,RNI
MAR - 1465,39963,RNI,RNI
MAR - 1466,39991,RNI,RNI
MAR - 1467,40014,PJD,PJD
MAR - 1468,40042,PJD,PJD
MAR - 1469,40070,PJD,PJD
MAR - 1470,40098,PJD,PJD
MAR - 1471,40126,PJD,PJD
MAR - 1472,40154,PJD,PJD
MAR - 1473,40182,PJD,PJD
MAR - 1474,40210,PJD,PJD
MAR - 1475,40238,PJD,PJD
MAR - 1476,40266,PJD,PJD
MAR - 1477,40294,PJD,PJD
MAR - 1478,40322,PJD,PJD
MAR - 1479,40350,PJD,PJD
MAR - 1480,40378,PJD,PJD
MAR - 1481,40406,PJD,PJD
MAR - 1482,40434,PJD,PJD
MAR - 1483,40462,PJD,PJD
MAR - 1484,40490,PJD,PJD
MAR - 1485,40518,PJD,PJD
MAR - 1486,40546,PJD,PJD
MAR - 1487,40574,PJD,PJD
MAR - 1488,40602,PJD,PJD
MAR - 1489,40630,PJD,PJD
MAR - 1490,40658,PJD,PJD
MAR - 1491,40686,PJD,PJD
MAR - 1492,40714,PJD,PJD
MAR - 1493,40742,PJD,PJD
MAR - 1494,40770,PJD,PJD
MAR - 1495,40798,PJD,PJD
MAR - 1496,40826,PJD,PJD
MAR - 1497,40854,PJD,PJD
MAR - 1498,40882,PJD,PJD
MAR - 1499,40915,RNI,RNI
MAR - 1500,40938,PJD,PJD
MAR - 1501,40966,PJD,PJD
MAR - 1502,40994,PJD,PJD
MAR - 1503,41022,PJD,PJD
MAR - 1504,41050,PJD,PJD
MAR - 1505,41078,PJD,PJD
MAR - 1506,41106,PJD,PJD
MAR - 1507,41134,PJD,PJD
MAR - 1508,41162,PJD,PJD
MAR - 1509,41190,PJD,PJD
MAR - 1510,41218,PJD,PJD
MAR - 1511,41246,PJD,PJD
MAR - 1512,41274,PJD,PJD
MAR - 1513,41302,PJD,PJD
MAR - 1514,41330,PJD,PJD
MAR - 1515,41358,PJD,PJD
